module gitlab.com/mergetb/exptools/forensics/measurement

go 1.18

require (
	github.com/influxdata/influxdb-client-go/v2 v2.12.0
	gopkg.in/yaml.v2 v2.4.0
)

require (
	github.com/deepmap/oapi-codegen v1.8.2 // indirect
	github.com/influxdata/line-protocol v0.0.0-20200327222509-2487e7298839 // indirect
	github.com/pkg/errors v0.9.1 // indirect
	golang.org/x/net v0.0.0-20210119194325-5f4716e94777 // indirect
)
